\relax 
\catcode `"\active 
\selectlanguage *{latex}
\@writefile{toc}{\selectlanguage *{latex}}
\@writefile{lof}{\selectlanguage *{latex}}
\@writefile{lot}{\selectlanguage *{latex}}
\@writefile{toc}{\contentsline {section}{\numberline {1}Sekvenční řešení}{3}\protected@file@percent }
\@writefile{toc}{\contentsline {subsection}{\numberline {1.1}Popis algoritmu sekvenčního řešení}{3}\protected@file@percent }
\@writefile{toc}{\contentsline {subsection}{\numberline {1.2}Výsledky měření}{4}\protected@file@percent }
\@writefile{lot}{\contentsline {table}{\numberline {1}{\ignorespaces Výsledky měření pro různé vstupy}}{4}\protected@file@percent }
\newlabel{tab:Datový paralelizmus}{{1}{4}}
\@writefile{toc}{\contentsline {section}{\numberline {2}Táskový paralelizmus}{5}\protected@file@percent }
\@writefile{toc}{\contentsline {subsection}{\numberline {2.1}Výsledky měření}{6}\protected@file@percent }
\@writefile{lot}{\contentsline {table}{\numberline {2}{\ignorespaces Výsledky měření pro různé vstupy}}{6}\protected@file@percent }
\newlabel{tab:Datový paralelizmus}{{2}{6}}
\@writefile{toc}{\contentsline {section}{\numberline {3}Datový paralelizmus}{7}\protected@file@percent }
\@writefile{toc}{\contentsline {subsection}{\numberline {3.1}Výsledky měření}{8}\protected@file@percent }
\@writefile{lot}{\contentsline {table}{\numberline {3}{\ignorespaces Výsledky měření pro různé vstupy}}{8}\protected@file@percent }
\newlabel{tab:Datový paralelizmus}{{3}{8}}
\@writefile{toc}{\contentsline {section}{\numberline {4}Použití MPI knihoven pro paralelizmus}{9}\protected@file@percent }
\@writefile{toc}{\contentsline {subsection}{\numberline {4.1}Výsledky měření}{10}\protected@file@percent }
\@writefile{lot}{\contentsline {table}{\numberline {4}{\ignorespaces Výsledky měření pro různé vstupy}}{10}\protected@file@percent }
\newlabel{tab:Datový paralelizmus}{{4}{10}}
\@writefile{toc}{\contentsline {section}{\numberline {5}Časové shrnutí a analýza výsledků}{11}\protected@file@percent }
\@writefile{toc}{\contentsline {section}{\numberline {6}Závěr}{13}\protected@file@percent }
