14.563s
======
Knight position: 0 0
Bishop position: 1 1
======
JP----
-S-P-P
-P----
------
--P-PP
------
14
S(4,4)*  J(2,1)*  S(2,2) J(1,3)*  S(3,1) J(0,1)*  S(4,2)*  J(1,3) S(2,4) J(3,2) S(3,3) J(5,3) S(1,5)*  J(4,5)* 
