\relax 
\catcode `"\active 
\selectlanguage *{latex}
\@writefile{toc}{\selectlanguage *{latex}}
\@writefile{lof}{\selectlanguage *{latex}}
\@writefile{lot}{\selectlanguage *{latex}}
\@writefile{toc}{\contentsline {section}{\numberline {1}VoIP}{4}\protected@file@percent }
\@writefile{toc}{\contentsline {subsection}{\numberline {1.1}Callable from the outside of the network}{5}\protected@file@percent }
\newlabel{tab:Phone to IP}{{1.1}{5}}
\@writefile{lot}{\contentsline {table}{\numberline {1}{\ignorespaces Phone numbers to IP}}{5}\protected@file@percent }
\@writefile{toc}{\contentsline {subsection}{\numberline {1.2}Old technology support}{5}\protected@file@percent }
\@writefile{toc}{\contentsline {subsection}{\numberline {1.3}Codecs}{5}\protected@file@percent }
\@writefile{toc}{\contentsline {section}{\numberline {2}VLANs}{6}\protected@file@percent }
\@writefile{toc}{\contentsline {subsection}{\numberline {2.1}User authentication and VLAN assign}{7}\protected@file@percent }
\@writefile{toc}{\contentsline {subsection}{\numberline {2.2}Voice VLAN}{7}\protected@file@percent }
\@writefile{toc}{\contentsline {subsubsection}{\numberline {2.2.1}Old VLAN configuration}{7}\protected@file@percent }
\@writefile{toc}{\contentsline {section}{\numberline {3}Redundancy in the design}{8}\protected@file@percent }
\@writefile{toc}{\contentsline {subsection}{\numberline {3.1}Redundancy in distribution network part}{8}\protected@file@percent }
\@writefile{toc}{\contentsline {subsection}{\numberline {3.2}Datalink redundancy}{8}\protected@file@percent }
\@writefile{toc}{\contentsline {subsection}{\numberline {3.3}Router redundancy}{8}\protected@file@percent }
\@writefile{toc}{\contentsline {subsection}{\numberline {3.4}DNS redundancy}{9}\protected@file@percent }
\@writefile{toc}{\contentsline {section}{\numberline {4}Prioritize the VoIP data transfer}{10}\protected@file@percent }
\@writefile{toc}{\contentsline {subsection}{\numberline {4.1}QoS}{10}\protected@file@percent }
\@writefile{toc}{\contentsline {subsection}{\numberline {4.2}Priority queue}{11}\protected@file@percent }
\@writefile{toc}{\contentsline {subsection}{\numberline {4.3}VoIP standards}{11}\protected@file@percent }
\@writefile{toc}{\contentsline {subsection}{\numberline {4.4}TCP resonance}{12}\protected@file@percent }
\@writefile{toc}{\contentsline {section}{\numberline {5}Modernize VPN in scalable way}{13}\protected@file@percent }
\@writefile{toc}{\contentsline {subsection}{\numberline {5.1}IPsec}{13}\protected@file@percent }
\@writefile{toc}{\contentsline {subsection}{\numberline {5.2}Redundancy in VPN}{13}\protected@file@percent }
\@writefile{lof}{\contentsline {figure}{\numberline {1}{\ignorespaces VPN}}{14}\protected@file@percent }
\newlabel{fig:korelace}{{1}{14}}
\@writefile{toc}{\contentsline {subsection}{\numberline {5.3}Connect users from outside}{14}\protected@file@percent }
\@writefile{toc}{\contentsline {section}{\numberline {6}Services available from WAN}{14}\protected@file@percent }
\@writefile{toc}{\contentsline {section}{\numberline {7}Security}{15}\protected@file@percent }
\@writefile{toc}{\contentsline {subsection}{\numberline {7.1}Firewall}{15}\protected@file@percent }
\@writefile{toc}{\contentsline {subsection}{\numberline {7.2}Proxy servers}{15}\protected@file@percent }
\@writefile{toc}{\contentsline {subsection}{\numberline {7.3}Max MAC addresses on fastEthernet}{15}\protected@file@percent }
\@writefile{toc}{\contentsline {subsection}{\numberline {7.4}DHCP snooping}{15}\protected@file@percent }
\@writefile{toc}{\contentsline {subsection}{\numberline {7.5}Best effort class changing}{16}\protected@file@percent }
\@writefile{toc}{\contentsline {section}{\numberline {8}Network diagram}{17}\protected@file@percent }
\@writefile{lof}{\contentsline {figure}{\numberline {2}{\ignorespaces Network}}{17}\protected@file@percent }
\newlabel{fig:Network}{{2}{17}}
\@writefile{toc}{\contentsline {section}{\numberline {9}Summary}{18}\protected@file@percent }
\@writefile{toc}{\contentsline {section}{\numberline {10}Used shortcuts}{19}\protected@file@percent }
