26352.666000000012

17594.24259999999
19149.312200000004
19983.834000000003
20704.645399999994
21260.506800000003
21786.042200000004
22235.072000000007
22625.419600000016
22970.462599999988
23281.573200000006
23563.44080000001
23801.700399999994
24020.305400000023
24205.62600000001
24363.892800000005
24507.91300000001
24630.912000000008
24740.8436
24845.818400000007
24931.935200000004
25013.698400000016
25085.60040000001
25153.671
25208.926799999994
25266.003000000015
25313.77160000001
25348.616
25384.145999999993
25418.13159999999
25448.610799999995
25479.3216
25511.184599999982
25539.60819999997
25563.843399999972
25583.80219999998
25605.037599999985
25630.945799999994
25649.253599999993
25663.955400000003
25686.50839999999
25702.3976
25722.0926
25741.27639999999
25758.02860000001
25769.0466
25784.344000000005
25796.94180000001
25812.47320000001
25826.089600000007
25843.009600000016
25851.024599999997
25861.5312
25873.43099999999
25883.607599999996
25888.216999999993
25896.067799999997
25903.77019999999
25914.0232
25921.13979999999
25931.98259999999
25941.112399999995
25948.6518
25961.97300000001
25969.66
25972.663
25977.375399999997
25989.335600000006
25995.9382
26002.951200000003
26006.72800000001
26014.665800000006
26022.488600000015
26027.547600000013
26034.44580000002
26043.164400000012
26048.317200000012
26053.49060000001
26058.5798
26064.245399999993
26067.962799999994
26079.791999999983
26084.931399999998
26091.674599999995
26096.857199999995
26101.707600000005
26108.88160000001
26112.686800000003
26119.13560000001
26123.25699999999
26128.452400000002
26133.1236
26138.323799999987
26144.52499999999
26149.558599999997
26156.304000000004
26161.220400000002
26164.4362
26168.416200000007
26172.699400000012
26176.84120000001
26180.364400000006
26188.913
26192.171400000003
26195.766
26199.639600000006
26203.44680000001
26205.63740000001
26209.63700000001
26213.37040000001
26214.0276
26215.8932
26219.340000000004
26221.386000000006
26224.41340000001
26225.668600000005
26227.738200000003
26230.63740000001
26235.214800000027
26236.12560000003
26238.328400000028
26240.508400000017
26241.215800000013
26242.50740000001
26244.800800000008
26250.3084
26253.916199999996
26254.9868
26256.052599999995
26259.269800000002
26261.215000000004
26263.302000000007
26265.737800000006
26267.449800000006
26269.55580000001
26270.84100000001
26271.37520000001
26274.034600000006
26274.870800000008
26277.00660000001
26278.33880000001
26280.42100000001
26281.330200000008
26282.104000000007
26284.566200000005
26288.245600000002
26288.410799999998
26289.9048
26294.146000000004
26294.976000000002
26295.2904
26297.535
26298.1042
26301.72280000001
26303.114000000012
26304.30360000001
26306.21060000001
26306.68620000001
26309.297200000015
26310.796400000017
26310.83420000002
26312.113000000023
26313.193600000017
26314.925400000015
26315.768800000013
26316.591800000017
26317.513200000016
26318.460800000015
26321.004200000014
26321.812000000016
26323.001000000015
26324.631200000018
26325.122200000013
26325.641000000014
26326.399600000015
26327.126600000018
26328.372600000017
26329.727400000018
26331.54460000002
26332.068600000017
26332.77520000002
26334.62360000001
26335.65360000001
26336.664400000012
26337.81860000001
26338.495400000007
26339.070800000016
26339.384600000016
26339.68100000001
26339.698800000013
26339.904800000015
26340.238200000007
26340.48160000001
26340.65940000001
26341.74740000001
26342.60400000001
26343.063400000014
26343.851400000014
26344.55660000001
26345.96060000001
26346.10360000001
         1875436584 function calls in 3897.378 seconds

   Ordered by: standard name

   ncalls  tottime  percall  cumtime  percall filename:lineno(function)
 41618838   32.604    0.000  133.390    0.000 <__array_function__ internals>:2(concatenate)
144898378  139.677    0.000 1565.772    0.000 <__array_function__ internals>:2(prod)
        1    0.000    0.000 3897.377 3897.377 <string>:1(<module>)
       17    0.000    0.000    0.000    0.000 codecs.py:319(decode)
144898378   27.905    0.000   27.905    0.000 fromnumeric.py:2876(_prod_dispatcher)
144898378  174.089    0.000 1292.849    0.000 fromnumeric.py:2881(prod)
144898378  330.061    0.000 1118.759    0.000 fromnumeric.py:70(_wrapreduction)
144898378   82.115    0.000   82.115    0.000 fromnumeric.py:71(<dictcomp>)
        1    0.000    0.000    0.000    0.000 getlimits.py:237(_get_machar)
    99200    0.304    0.000    0.348    0.000 getlimits.py:366(__new__)
        1    0.000    0.000    0.000    0.000 getlimits.py:399(_init)
 43427019   23.015    0.000   31.661    0.000 martin_GE.py:101(decision)
    99200   49.379    0.000 1424.355    0.014 martin_GE.py:104(generate_couples)
    99200    3.686    0.000    3.686    0.000 martin_GE.py:105(<listcomp>)
 43056822   18.221    0.000   18.221    0.000 martin_GE.py:11(__init__)
      496    0.001    0.000    0.152    0.000 martin_GE.py:116(get_best_person)
      496  100.066    0.202 3897.276    7.857 martin_GE.py:120(genetic_algorithm)
      496    0.001    0.000    0.001    0.000 martin_GE.py:16(__init__)
        1    0.085    0.085 3897.377 3897.377 martin_GE.py:187(main)
        1    0.000    0.000    0.000    0.000 martin_GE.py:194(<listcomp>)
    99696   13.402    0.000   21.526    0.000 martin_GE.py:24(normalize_prices)
 49848000  401.935    0.000  401.935    0.000 martin_GE.py:35(fitness_of_solution)
 47393104  404.973    0.000  404.973    0.000 martin_GE.py:43(is_valid)
 20809419  142.804    0.000 1451.856    0.000 martin_GE.py:54(crossover_of_solutions)
  6230970   56.013    0.000  432.600    0.000 martin_GE.py:67(mutate_solution)
      496    0.879    0.002    7.525    0.015 martin_GE.py:78(generate_population)
   198896    0.473    0.000   14.052    0.000 martin_GE.py:96(get_elitists)
 41618838    8.615    0.000    8.615    0.000 multiarray.py:143(concatenate)
        1    0.000    0.000    0.000    0.000 numerictypes.py:232(obj2sctype)
        1    0.000    0.000    0.000    0.000 {built-in method __new__ of type object at 0x906da0}
       17    0.000    0.000    0.000    0.000 {built-in method _codecs.utf_8_decode}
        1    0.000    0.000 3897.378 3897.378 {built-in method builtins.exec}
144898387   75.006    0.000   75.006    0.000 {built-in method builtins.getattr}
        2    0.000    0.000    0.000    0.000 {built-in method builtins.isinstance}
        2    0.000    0.000    0.000    0.000 {built-in method builtins.issubclass}
 23114592    4.716    0.000    4.716    0.000 {built-in method builtins.len}
    99696    3.871    0.000    3.871    0.000 {built-in method builtins.max}
    99696    4.203    0.000    4.203    0.000 {built-in method builtins.min}
      702    0.010    0.000    0.010    0.000 {built-in method builtins.print}
        9    0.000    0.000    0.000    0.000 {built-in method builtins.setattr}
    99200    0.060    0.000    0.060    0.000 {built-in method math.ceil}
 20908619   42.621    0.000   42.621    0.000 {built-in method numpy.arange}
186517216  197.512    0.000 1490.361    0.000 {built-in method numpy.core._multiarray_umath.implement_array_function}
 68030303   10.711    0.000   10.711    0.000 {method 'append' of 'list' objects}
 72374789  884.776    0.000 2448.083    0.000 {method 'choice' of 'numpy.random.mtrand.RandomState' objects}
    99200    0.153    0.000    0.153    0.000 {method 'clear' of 'list' objects}
    99200    0.163    0.000    0.163    0.000 {method 'copy' of 'list' objects}
  6230970    7.498    0.000    7.498    0.000 {method 'copy' of 'numpy.ndarray' objects}
        1    0.000    0.000    0.000    0.000 {method 'disable' of '_lsprof.Profiler' objects}
    99204    0.044    0.000    0.044    0.000 {method 'get' of 'dict' objects}
144898378   24.117    0.000   24.117    0.000 {method 'items' of 'dict' objects}
        1    0.000    0.000    0.000    0.000 {method 'newbyteorder' of 'numpy.generic' objects}
   248000    1.928    0.000    4.740    0.000 {method 'randint' of 'numpy.random.mtrand.RandomState' objects}
 43427019    8.646    0.000    8.646    0.000 {method 'random' of '_random.Random' objects}
144898378  607.460    0.000  607.460    0.000 {method 'reduce' of 'numpy.ufunc' objects}
      500    0.000    0.000    0.000    0.000 {method 'rstrip' of 'str' objects}
   198896   13.579    0.000   13.579    0.000 {method 'sort' of 'list' objects}
      500    0.003    0.000    0.003    0.000 {method 'split' of 'str' objects}
        5    0.000    0.000    0.000    0.000 {method 'strip' of 'str' objects}
        1    0.000    0.000    0.000    0.000 {method 'tobytes' of 'numpy.generic' objects}


