35616.696

22131.068399999993
24273.79140000002
25376.69780000002
26256.93460000001
27070.717999999997
27749.296200000023
28372.354599999995
28932.90500000001
29455.671200000023
29909.511399999978
30336.882599999983
30733.962399999968
31072.518399999994
31388.604000000003
31650.385799999993
31895.845399999973
32115.854399999997
32326.771800000006
32517.29360000002
32711.8732
32873.218200000025
33011.15259999999
33153.64559999999
33265.762599999995
33380.12220000001
33478.772199999985
33563.9266
33652.3446
33729.324800000046
33810.03760000003
33881.39059999997
33954.041000000005
34019.796200000004
34075.22219999999
34125.44460000004
34169.80420000003
34215.2784
34259.199
34294.058000000005
34333.880999999994
34372.43580000003
34411.10000000005
34441.90520000003
34471.23780000004
34502.68720000004
34544.557
34574.283199999976
34599.069200000005
34619.09299999999
34646.75599999997
34674.32539999999
34695.90579999999
34722.00719999999
34741.58299999999
34760.63819999999
34778.668200000015
34800.408400000015
34819.420199999986
34842.714799999994
34863.695999999996
34879.6504
34896.66780000001
34908.015
34922.025400000006
34935.31920000001
34949.20560000002
34960.25040000002
34973.04080000001
34982.46579999999
34998.2546
35010.15380000001
35022.35399999999
35031.611199999985
35041.29559999998
35053.06619999998
35060.88739999997
35072.91579999997
35081.69279999998
35095.77719999998
35110.93539999999
35120.83879999999
35129.98000000001
35142.3772
35155.2232
35164.12959999999
35172.20900000001
35180.8874
35194.0618
35204.8654
35214.44760000001
35224.145200000006
35236.02300000001
35243.23800000002
35251.940800000004
35260.39059999999
35267.742399999996
35277.0694
35284.9626
35292.67239999999
35297.4968
35303.04799999999
35310.44379999997
35316.84179999999
35327.666199999985
35332.95499999997
35343.29979999997
35349.59519999998
35352.69359999998
35359.633599999965
35370.05259999998
35376.22359999999
35379.255799999984
35382.77239999998
35389.44739999998
35396.51899999997
35401.38099999996
35407.59219999997
35412.132599999975
35415.16159999997
35422.32999999997
35429.692799999975
35434.81039999997
35438.424399999974
35441.83659999997
35445.431999999986
35448.45659999996
35453.55879999995
35457.53879999995
35462.16199999996
35464.17119999997
35467.076399999976
35470.78459999997
35474.151999999965
35478.118599999965
35484.52919999995
35487.73019999995
35492.33599999997
35495.12739999996
35498.56199999997
35502.928399999975
35503.90759999998
35506.30359999998
35509.37779999998
35513.10039999998
35515.625599999985
35517.51259999998
35519.51639999998
35521.557399999976
35523.23479999998
35524.65059999997
35526.391599999966
35527.630399999965
35529.12799999997
35530.49379999997
35532.19899999997
35535.303999999975
35538.71999999998
35543.07379999998
35546.372799999976
35549.49439999998
35551.07559999999
35554.249999999985
35555.03359999998
35556.27579999998
35559.303799999994
35560.4094
35561.5484
35563.6212
35565.87
35568.4244
35571.5644
35573.2514
35574.550200000005
35577.323800000006
35578.4444
35580.08
35581.472799999996
35582.065
35583.013199999994
35585.007000000005
35586.1616
35587.26219999999
35589.26699999999
35590.2348
35594.0194
35595.379199999996
35596.784199999995
35598.636399999996
35599.46019999999
35600.366999999984
35601.32299999998
35602.45119999998
35604.79079999999
35606.354199999994
35607.073599999996
35607.26119999999
35607.91279999999
35608.62599999999
35610.41979999999
35610.94039999999
         1885541401 function calls in 4187.356 seconds

   Ordered by: standard name

   ncalls  tottime  percall  cumtime  percall filename:lineno(function)
 41863664   31.890    0.000  132.964    0.000 <__array_function__ internals>:2(concatenate)
145752786  139.988    0.000 1588.409    0.000 <__array_function__ internals>:2(prod)
        1    0.000    0.000 4187.356 4187.356 <string>:1(<module>)
       22    0.000    0.000    0.000    0.000 codecs.py:319(decode)
145752786   28.265    0.000   28.265    0.000 fromnumeric.py:2876(_prod_dispatcher)
145752786  169.343    0.000 1311.512    0.000 fromnumeric.py:2881(prod)
145752786  337.593    0.000 1142.170    0.000 fromnumeric.py:70(_wrapreduction)
145752786   81.214    0.000   81.214    0.000 fromnumeric.py:71(<dictcomp>)
        1    0.000    0.000    0.000    0.000 getlimits.py:237(_get_machar)
    99800    0.300    0.000    0.344    0.000 getlimits.py:366(__new__)
        1    0.000    0.000    0.000    0.000 getlimits.py:399(_init)
 43686232   23.695    0.000   32.233    0.000 martin_GE.py:101(decision)
    99800   52.905    0.001 1435.076    0.014 martin_GE.py:104(generate_couples)
    99800    3.842    0.000    3.842    0.000 martin_GE.py:105(<listcomp>)
 42541902   17.053    0.000   17.053    0.000 martin_GE.py:11(__init__)
      499    0.001    0.000    0.158    0.000 martin_GE.py:116(get_best_person)
      499  102.227    0.205 4187.246    8.391 martin_GE.py:120(genetic_algorithm)
      499    0.001    0.000    0.001    0.000 martin_GE.py:16(__init__)
        1    0.088    0.088 4187.356 4187.356 martin_GE.py:187(main)
        1    0.000    0.000    0.000    0.000 martin_GE.py:194(<listcomp>)
   100299   13.663    0.000   21.895    0.000 martin_GE.py:24(normalize_prices)
 50149500  528.858    0.000  528.858    0.000 martin_GE.py:35(fitness_of_solution)
 47464998  526.955    0.000  526.955    0.000 martin_GE.py:43(is_valid)
 20931832  148.369    0.000 1572.154    0.000 martin_GE.py:54(crossover_of_solutions)
  6261111   56.891    0.000  460.094    0.000 martin_GE.py:67(mutate_solution)
      499    0.909    0.002    8.178    0.016 martin_GE.py:78(generate_population)
   200099    0.466    0.000   14.917    0.000 martin_GE.py:96(get_elitists)
 41863664    8.712    0.000    8.712    0.000 multiarray.py:143(concatenate)
        1    0.000    0.000    0.000    0.000 numerictypes.py:232(obj2sctype)
        1    0.000    0.000    0.000    0.000 {built-in method __new__ of type object at 0x906da0}
       22    0.000    0.000    0.000    0.000 {built-in method _codecs.utf_8_decode}
        1    0.000    0.000 4187.356 4187.356 {built-in method builtins.exec}
145752795   77.382    0.000   77.382    0.000 {built-in method builtins.getattr}
        2    0.000    0.000    0.000    0.000 {built-in method builtins.isinstance}
        2    0.000    0.000    0.000    0.000 {built-in method builtins.issubclass}
 23254398    4.488    0.000    4.488    0.000 {built-in method builtins.len}
   100299    3.903    0.000    3.903    0.000 {built-in method builtins.max}
   100299    4.278    0.000    4.278    0.000 {built-in method builtins.min}
      702    0.010    0.000    0.010    0.000 {built-in method builtins.print}
        9    0.000    0.000    0.000    0.000 {built-in method builtins.setattr}
    99800    0.057    0.000    0.057    0.000 {built-in method math.ceil}
 21031632   42.625    0.000   42.625    0.000 {built-in method numpy.arange}
187616450  201.006    0.000 1512.519    0.000 {built-in method numpy.core._multiarray_umath.implement_array_function}
 68451865   10.840    0.000   10.840    0.000 {method 'append' of 'list' objects}
 72801543  890.578    0.000 2476.461    0.000 {method 'choice' of 'numpy.random.mtrand.RandomState' objects}
    99800    0.154    0.000    0.154    0.000 {method 'clear' of 'list' objects}
    99800    0.163    0.000    0.163    0.000 {method 'copy' of 'list' objects}
  6261111    7.642    0.000    7.642    0.000 {method 'copy' of 'numpy.ndarray' objects}
        1    0.000    0.000    0.000    0.000 {method 'disable' of '_lsprof.Profiler' objects}
    99804    0.044    0.000    0.044    0.000 {method 'get' of 'dict' objects}
145752786   24.876    0.000   24.876    0.000 {method 'items' of 'dict' objects}
        1    0.000    0.000    0.000    0.000 {method 'newbyteorder' of 'numpy.generic' objects}
   249500    1.981    0.000    4.850    0.000 {method 'randint' of 'numpy.random.mtrand.RandomState' objects}
 43686232    8.538    0.000    8.538    0.000 {method 'random' of '_random.Random' objects}
145752786  621.106    0.000  621.106    0.000 {method 'reduce' of 'numpy.ufunc' objects}
      500    0.000    0.000    0.000    0.000 {method 'rstrip' of 'str' objects}
   200099   14.451    0.000   14.451    0.000 {method 'sort' of 'list' objects}
      500    0.006    0.000    0.006    0.000 {method 'split' of 'str' objects}
        5    0.000    0.000    0.000    0.000 {method 'strip' of 'str' objects}
        1    0.000    0.000    0.000    0.000 {method 'tobytes' of 'numpy.generic' objects}


