5738 5738 wuf20-01000
6375 6375 wuf20-0100
6072 6072 wuf20-0101
4641 4641 wuf20-0102
6887 6887 wuf20-0103
6132 6132 wuf20-0104
6790 6790 wuf20-0105
7577 7577 wuf20-0106
6019 6019 wuf20-0107
9424 9424 wuf20-0108
4259 4259 wuf20-0109
7843 7843 wuf20-010
5934 5934 wuf20-0110
7509 7509 wuf20-0111
7483 7483 wuf20-0112
6500 6500 wuf20-0113
7960 7960 wuf20-0114
5570 5570 wuf20-0115
6192 6192 wuf20-0116
6407 6407 wuf20-0117
6605 6605 wuf20-0118
7538 7538 wuf20-0119
7683 7683 wuf20-011
6529 6529 wuf20-0120
7821 7821 wuf20-0121
7238 7238 wuf20-0122
8000 8000 wuf20-0123
7200 7200 wuf20-0124
8727 8727 wuf20-0125
8130 8130 wuf20-0126
5643 5643 wuf20-0127
6665 6665 wuf20-0128
4382 4382 wuf20-0129
5375 5375 wuf20-012
5090 5090 wuf20-0130
8047 8047 wuf20-0131
6196 6196 wuf20-0132
8786 8786 wuf20-0133
6323 6323 wuf20-0134
5550 5550 wuf20-0135
8130 8130 wuf20-0136
4081 4081 wuf20-0137
6280 6280 wuf20-0138
5633 5633 wuf20-0139
5570 5570 wuf20-013
8816 8816 wuf20-0140
5866 5866 wuf20-0141
6483 6483 wuf20-0142
7505 7505 wuf20-0143
4605 4605 wuf20-0144
6201 6201 wuf20-0145
6179 6179 wuf20-0146
5874 5874 wuf20-0147
7276 7276 wuf20-0148
5398 5398 wuf20-0149
7025 7025 wuf20-014
5595 5595 wuf20-0150
7707 7707 wuf20-0151
4206 4206 wuf20-0152
5528 5528 wuf20-0153
8111 8111 wuf20-0154
7280 7280 wuf20-0155
5044 5044 wuf20-0156
5541 5541 wuf20-0157
6179 6179 wuf20-0158
7001 7001 wuf20-0159
5046 5046 wuf20-015
8538 8538 wuf20-0160
7085 7085 wuf20-0161
7251 7251 wuf20-0162
8374 8374 wuf20-0163
5080 5080 wuf20-0164
7730 7730 wuf20-0165
5471 5471 wuf20-0166
6535 6535 wuf20-0167
6303 6303 wuf20-0168
5790 5790 wuf20-0169
6936 6936 wuf20-016
6983 6983 wuf20-0170
8216 8216 wuf20-0171
5946 5946 wuf20-0172
7158 7158 wuf20-0173
6558 6558 wuf20-0174
6529 6529 wuf20-0175
4940 4940 wuf20-0176
6963 6963 wuf20-0177
5355 5355 wuf20-0178
8429 8429 wuf20-0179
7948 7948 wuf20-017
6797 6797 wuf20-0180
6702 6702 wuf20-0181
6392 6392 wuf20-0182
5207 5207 wuf20-0183
6451 6451 wuf20-0184
6543 6543 wuf20-0185
6675 6675 wuf20-0186
5015 5015 wuf20-0187
5547 5547 wuf20-0188
6014 6014 wuf20-0189
6523 6538 wuf20-018
7907 7907 wuf20-0190
7249 7249 wuf20-0191
5389 5389 wuf20-0192
5675 5675 wuf20-0193
7105 7105 wuf20-0194
7280 7280 wuf20-0195
6404 6404 wuf20-0196
5212 5212 wuf20-0197
6246 6246 wuf20-0198
8621 8621 wuf20-0199
5609 5609 wuf20-019
6403 6403 wuf20-01
3235 3235 wuf20-0200
5876 5876 wuf20-0201
7052 7052 wuf20-0202
5589 5589 wuf20-0203
5102 5102 wuf20-0204
4889 4889 wuf20-0205
8358 8358 wuf20-0206
6560 6560 wuf20-0207
7042 7042 wuf20-0208
8227 8227 wuf20-0209
6144 6144 wuf20-020
4136 4136 wuf20-0210
6673 6673 wuf20-0211
7013 7013 wuf20-0212
5583 5583 wuf20-0213
7156 7156 wuf20-0214
7290 7290 wuf20-0215
4882 4882 wuf20-0216
7423 7423 wuf20-0217
5168 5168 wuf20-0218
6227 6227 wuf20-0219
6451 6451 wuf20-021
4772 4772 wuf20-0220
7849 7849 wuf20-0221
8786 8786 wuf20-0222
8047 8047 wuf20-0223
5727 5727 wuf20-0224
5366 5366 wuf20-0225
6042 6042 wuf20-0226
7986 7986 wuf20-0227
6480 6480 wuf20-0228
7855 7855 wuf20-0229
6289 6289 wuf20-022
5298 5298 wuf20-0230
4471 4471 wuf20-0231
6589 6589 wuf20-0232
6697 6697 wuf20-0233
6029 6029 wuf20-0234
7693 7693 wuf20-0235
8351 8351 wuf20-0236
5677 5677 wuf20-0237
7534 7534 wuf20-0238
6901 6901 wuf20-0239
5746 5746 wuf20-023
6010 6010 wuf20-0240
6120 6120 wuf20-0241
6512 6512 wuf20-0242
5992 5992 wuf20-0243
6261 6261 wuf20-0244
4183 4183 wuf20-0245
6400 6400 wuf20-0246
7910 7910 wuf20-0247
6897 6897 wuf20-0248
6524 6524 wuf20-0249
4886 4886 wuf20-024
8373 8373 wuf20-0250
7247 7247 wuf20-0251
6290 6290 wuf20-0252
7177 7177 wuf20-0253
6239 6239 wuf20-0254
6484 6484 wuf20-0255
7088 7088 wuf20-0256
7144 7144 wuf20-0257
6778 6778 wuf20-0258
6990 6990 wuf20-0259
6830 6830 wuf20-025
5891 5891 wuf20-0260
6663 6663 wuf20-0261
6255 6255 wuf20-0262
6913 6913 wuf20-0263
5786 5786 wuf20-0264
8388 8388 wuf20-0265
6871 6871 wuf20-0266
6585 6585 wuf20-0267
8014 8014 wuf20-0268
5601 5601 wuf20-0269
6140 6140 wuf20-026
7661 7661 wuf20-0270
5870 5870 wuf20-0271
5480 5480 wuf20-0272
6414 6414 wuf20-0273
7164 7164 wuf20-0274
4882 4882 wuf20-0275
6998 6998 wuf20-0276
6052 6052 wuf20-0277
4867 4867 wuf20-0278
7425 7425 wuf20-0279
7237 7237 wuf20-027
6995 6995 wuf20-0280
7099 7099 wuf20-0281
5135 5135 wuf20-0282
7832 7832 wuf20-0283
6397 6397 wuf20-0284
5790 5790 wuf20-0285
6028 6028 wuf20-0286
6089 6089 wuf20-0287
6196 6196 wuf20-0288
6005 6005 wuf20-0289
5256 5256 wuf20-028
5824 5824 wuf20-0290
9295 9295 wuf20-0291
6992 6992 wuf20-0292
7442 7442 wuf20-0293
7644 7644 wuf20-0294
5699 5699 wuf20-0295
6096 6096 wuf20-0296
5327 5327 wuf20-0297
7361 7361 wuf20-0298
4862 4862 wuf20-0299
5613 5613 wuf20-029
4747 4747 wuf20-02
6709 6709 wuf20-0300
7295 7295 wuf20-0301
7400 7400 wuf20-0302
5780 5780 wuf20-0303
5946 5946 wuf20-0304
3420 3420 wuf20-0305
2134 2134 wuf20-0306
3442 3442 wuf20-0307
3265 3265 wuf20-0308
2725 2725 wuf20-0309
3493 3493 wuf20-030
3231 3231 wuf20-0310
3524 3524 wuf20-0311
2502 2502 wuf20-0312
2502 2502 wuf20-0313
3700 3700 wuf20-0314
3709 3709 wuf20-0315
2498 2498 wuf20-0316
2640 2640 wuf20-0317
3829 3829 wuf20-0318
4034 4034 wuf20-0319
2390 2390 wuf20-031
3568 3568 wuf20-0320
2984 2984 wuf20-0321
3439 3439 wuf20-0322
2002 2002 wuf20-0323
3199 3199 wuf20-0324
4098 4098 wuf20-0325
2731 2731 wuf20-0326
3070 3070 wuf20-0327
2915 2915 wuf20-0328
2544 2544 wuf20-0329
3411 3411 wuf20-032
1970 1970 wuf20-0330
2938 2938 wuf20-0331
2447 2447 wuf20-0332
3508 3508 wuf20-0333
2277 2277 wuf20-0334
3038 3038 wuf20-0335
1818 1818 wuf20-0336
3091 3091 wuf20-0337
2545 2545 wuf20-0338
3995 3995 wuf20-0339
3145 3145 wuf20-0342
2593 2593 wuf20-0343
2969 2969 wuf20-0344
3584 3584 wuf20-0345
2593 2593 wuf20-0346
3682 3682 wuf20-0347
3997 3997 wuf20-0348
2352 2352 wuf20-0349
3764 3764 wuf20-034
1878 1878 wuf20-0350
3682 3682 wuf20-0351
3229 3229 wuf20-0352
4119 4119 wuf20-0353
2928 2928 wuf20-0354
4057 4057 wuf20-0355
3983 3983 wuf20-0356
2990 2990 wuf20-0357
3481 3481 wuf20-0358
2405 2405 wuf20-0359
3726 3726 wuf20-035
3197 3197 wuf20-0360
3362 3362 wuf20-0361
2559 2559 wuf20-0362
3670 3670 wuf20-0363
3115 3115 wuf20-0364
2697 2697 wuf20-0365
3177 3177 wuf20-0366
2511 2511 wuf20-0367
3626 3626 wuf20-0368
3138 3138 wuf20-0369
3403 3403 wuf20-036
2177 2177 wuf20-0370
3384 3384 wuf20-0371
2907 2907 wuf20-0372
2344 2344 wuf20-0373
2320 2320 wuf20-0374
2303 2303 wuf20-0375
3208 3208 wuf20-0376
4077 4077 wuf20-0377
3437 3437 wuf20-0378
3444 3444 wuf20-0379
3183 3183 wuf20-037
2937 2937 wuf20-0380
3542 3542 wuf20-0381
2542 2542 wuf20-0382
2550 2550 wuf20-0383
3051 3051 wuf20-0384
3132 3132 wuf20-0385
3847 3847 wuf20-0386
2676 2676 wuf20-0387
3148 3148 wuf20-0388
2661 2661 wuf20-0389
2684 2684 wuf20-038
3530 3530 wuf20-0390
3213 3213 wuf20-0391
3018 3018 wuf20-0392
3488 3488 wuf20-0393
2705 2705 wuf20-0394
4023 4023 wuf20-0395
2595 2595 wuf20-0396
2734 2734 wuf20-0397
3668 3668 wuf20-0398
2669 2669 wuf20-0399
2988 2988 wuf20-039
3118 3118 wuf20-03
3194 3194 wuf20-0400
3910 3910 wuf20-0401
2407 2407 wuf20-0402
3681 3681 wuf20-0403
2813 2813 wuf20-0404
2497 2497 wuf20-0405
2883 2883 wuf20-0406
3578 3578 wuf20-0407
4028 4028 wuf20-0408
2508 2508 wuf20-0409
2616 2616 wuf20-040
3442 3442 wuf20-0410
3722 3722 wuf20-0411
3101 3101 wuf20-0412
4312 4312 wuf20-0413
3909 3909 wuf20-0414
2151 2151 wuf20-0415
3893 3893 wuf20-0416
3502 3502 wuf20-0417
3729 3729 wuf20-0418
2476 2476 wuf20-0419
3764 3764 wuf20-041
3285 3285 wuf20-0420
1991 1991 wuf20-0421
4098 4098 wuf20-0422
2420 2420 wuf20-0423
3067 3067 wuf20-0424
3112 3112 wuf20-0425
3197 3197 wuf20-0426
3049 3049 wuf20-0427
2395 2395 wuf20-0428
3894 3894 wuf20-0429
2986 2986 wuf20-042
2165 2165 wuf20-0430
3384 3384 wuf20-0431
3220 3220 wuf20-0432
2844 2844 wuf20-0433
3431 3431 wuf20-0434
3030 3030 wuf20-0435
3531 3531 wuf20-0436
2507 2507 wuf20-0437
3108 3108 wuf20-0438
3469 3469 wuf20-0439
2536 2536 wuf20-043
2337 2337 wuf20-0440
3205 3205 wuf20-0441
2196 2196 wuf20-0442
2377 2377 wuf20-0443
2313 2313 wuf20-0444
3067 3067 wuf20-0445
2904 2904 wuf20-0446
2637 2637 wuf20-0447
4084 4084 wuf20-0448
3348 3348 wuf20-0449
2306 2306 wuf20-044
2471 2471 wuf20-0450
3122 3122 wuf20-0451
2866 2866 wuf20-0452
2528 2528 wuf20-0453
2960 2960 wuf20-0454
3199 3199 wuf20-0455
3581 3581 wuf20-0456
3029 3029 wuf20-0457
2776 2776 wuf20-0458
2308 2308 wuf20-0459
2794 2794 wuf20-045
3493 3493 wuf20-0460
3353 3353 wuf20-0461
4251 4251 wuf20-0462
2873 2873 wuf20-0463
2606 2606 wuf20-0464
3207 3207 wuf20-0465
2375 2375 wuf20-0466
2523 2523 wuf20-0467
2568 2568 wuf20-0468
3155 3155 wuf20-0469
3150 3150 wuf20-046
3146 3146 wuf20-0470
2767 2767 wuf20-0471
3829 3829 wuf20-0472
3325 3325 wuf20-0473
2981 2981 wuf20-0474
2897 2897 wuf20-0475
3162 3162 wuf20-0476
3395 3395 wuf20-0477
3283 3283 wuf20-0478
2830 2830 wuf20-0479
3121 3121 wuf20-047
3948 3948 wuf20-0480
3241 3241 wuf20-0481
2797 2797 wuf20-0482
3300 3300 wuf20-0483
2881 2881 wuf20-0484
2953 2953 wuf20-0485
2188 2188 wuf20-0486
3738 3738 wuf20-0487
3563 3563 wuf20-0488
3640 3640 wuf20-0489
3513 3513 wuf20-048
3637 3637 wuf20-0490
3620 3620 wuf20-0491
3466 3466 wuf20-0492
3247 3247 wuf20-0493
3704 3704 wuf20-0494
3053 3053 wuf20-0495
3560 3560 wuf20-0496
2450 2450 wuf20-0497
3405 3405 wuf20-0498
4089 4089 wuf20-0499
2909 2909 wuf20-049
3089 3089 wuf20-04
2492 2492 wuf20-0500
3319 3319 wuf20-0501
3168 3168 wuf20-0502
2539 2539 wuf20-0503
2816 2816 wuf20-0504
2973 2973 wuf20-0505
3888 3888 wuf20-0506
2743 2743 wuf20-0507
2249 2249 wuf20-0508
2847 2847 wuf20-0509
2913 2913 wuf20-050
2578 2578 wuf20-0510
3794 3794 wuf20-0511
2865 2865 wuf20-0512
2547 2547 wuf20-0513
3490 3490 wuf20-0514
3085 3085 wuf20-0515
3485 3485 wuf20-0516
3627 3627 wuf20-0517
3196 3196 wuf20-0518
3189 3189 wuf20-0519
3469 3469 wuf20-051
3492 3492 wuf20-0520
2881 2881 wuf20-0521
3467 3467 wuf20-0522
3172 3172 wuf20-0523
3482 3482 wuf20-0524
2957 2957 wuf20-0525
2841 2841 wuf20-0526
3855 3855 wuf20-0527
2862 2862 wuf20-0528
3428 3428 wuf20-0529
3731 3731 wuf20-052
3279 3279 wuf20-0530
3074 3074 wuf20-0531
2629 2629 wuf20-0532
3753 3753 wuf20-0533
3647 3647 wuf20-0534
2399 2399 wuf20-0535
2527 2527 wuf20-0536
3354 3354 wuf20-0537
3006 3006 wuf20-0538
3188 3188 wuf20-0539
4194 4194 wuf20-053
3051 3051 wuf20-0540
2864 2864 wuf20-0541
3533 3533 wuf20-0542
3702 3702 wuf20-0543
3013 3013 wuf20-0544
3611 3611 wuf20-0545
2900 2900 wuf20-0546
3932 3932 wuf20-0547
2955 2955 wuf20-0548
2797 2797 wuf20-0549
2691 2691 wuf20-054
3236 3236 wuf20-0550
2952 2952 wuf20-0551
3803 3803 wuf20-0552
2755 2755 wuf20-0553
4167 4167 wuf20-0554
3023 3023 wuf20-0555
3636 3636 wuf20-0556
2448 2448 wuf20-0557
2046 2046 wuf20-0558
2757 2757 wuf20-0559
2851 2851 wuf20-055
3347 3347 wuf20-0560
3827 3827 wuf20-0561
2633 2633 wuf20-0562
3514 3514 wuf20-0563
2661 2661 wuf20-0564
2882 2882 wuf20-0565
2623 2623 wuf20-0566
2707 2707 wuf20-0567
3035 3035 wuf20-0568
2338 2338 wuf20-0569
3271 3271 wuf20-056
2722 2722 wuf20-0570
3659 3659 wuf20-0571
3699 3699 wuf20-0572
3467 3467 wuf20-0573
4428 4428 wuf20-0574
2874 2874 wuf20-0575
3260 3260 wuf20-0576
2636 2636 wuf20-0577
4100 4100 wuf20-0578
4358 4358 wuf20-0579
3806 3806 wuf20-057
3089 3089 wuf20-0580
3868 3868 wuf20-0581
3919 3919 wuf20-0582
3424 3424 wuf20-0583
2646 2646 wuf20-0584
4094 4094 wuf20-0585
3588 3588 wuf20-0586
2480 2480 wuf20-0587
3547 3547 wuf20-0588
4499 4499 wuf20-0589
3261 3261 wuf20-058
2506 2506 wuf20-0590
3002 3002 wuf20-0591
2911 2911 wuf20-0592
3319 3319 wuf20-0593
3925 3925 wuf20-0594
3752 3752 wuf20-0595
3464 3464 wuf20-0596
3527 3527 wuf20-0597
3665 3665 wuf20-0598
2786 2786 wuf20-0599
4144 4144 wuf20-059
3186 3186 wuf20-05
2846 2846 wuf20-0600
3142 3142 wuf20-0601
4088 4088 wuf20-0602
3440 3440 wuf20-0603
4116 4116 wuf20-0604
3085 3085 wuf20-0605
3880 3880 wuf20-0606
4156 4156 wuf20-0607
3196 3196 wuf20-0608
3232 3232 wuf20-0609
4389 4389 wuf20-060
4029 4029 wuf20-0610
2626 2626 wuf20-0611
2804 2804 wuf20-0612
3045 3045 wuf20-0613
3072 3072 wuf20-0614
3325 3325 wuf20-0615
2290 2290 wuf20-0616
3052 3052 wuf20-0617
4296 4296 wuf20-0618
3936 3936 wuf20-0619
3752 3752 wuf20-061
2956 2956 wuf20-0620
3746 3746 wuf20-0621
2497 2497 wuf20-0622
3739 3739 wuf20-0623
2775 2775 wuf20-0624
3308 3308 wuf20-0625
3178 3178 wuf20-0626
3691 3691 wuf20-0627
4113 4113 wuf20-0628
4287 4287 wuf20-0629
2436 2436 wuf20-062
3564 3564 wuf20-0630
3657 3657 wuf20-0631
2899 2899 wuf20-0632
3990 3990 wuf20-0633
3052 3052 wuf20-0634
4437 4437 wuf20-0635
3207 3207 wuf20-0636
2768 2768 wuf20-0637
3385 3385 wuf20-0638
3543 3543 wuf20-0639
3475 3475 wuf20-063
3342 3342 wuf20-0640
3574 3574 wuf20-0641
2768 2768 wuf20-0642
3740 3740 wuf20-0643
3856 3856 wuf20-0644
3870 3870 wuf20-0645
3263 3263 wuf20-0646
3342 3342 wuf20-0647
3460 3460 wuf20-0648
3187 3187 wuf20-0649
3282 3282 wuf20-064
3041 3041 wuf20-0650
4018 4018 wuf20-0651
3451 3451 wuf20-0652
3044 3044 wuf20-0653
2676 2676 wuf20-0654
2516 2516 wuf20-0655
2290 2290 wuf20-0656
3179 3179 wuf20-0657
2849 2849 wuf20-0658
3525 3525 wuf20-0659
3786 3786 wuf20-065
3907 3907 wuf20-0660
3914 3914 wuf20-0661
4082 4082 wuf20-0662
3117 3117 wuf20-0663
4173 4173 wuf20-0664
3624 3624 wuf20-0665
3068 3068 wuf20-0666
3182 3182 wuf20-0667
4225 4225 wuf20-0668
3369 3369 wuf20-0669
4120 4120 wuf20-066
3084 3084 wuf20-0670
3140 3140 wuf20-0671
3013 3013 wuf20-0672
2064 2064 wuf20-0673
2750 2750 wuf20-0674
3950 3950 wuf20-0675
3082 3082 wuf20-0676
3236 3236 wuf20-0677
3783 3783 wuf20-0678
4328 4328 wuf20-0679
3429 3429 wuf20-067
4318 4318 wuf20-0680
3849 3849 wuf20-0681
3048 3048 wuf20-0682
2929 2929 wuf20-0683
3217 3217 wuf20-0684
3424 3424 wuf20-0685
3024 3024 wuf20-0686
3418 3418 wuf20-0687
4014 4014 wuf20-0688
3216 3216 wuf20-0689
3516 3516 wuf20-068
3793 3793 wuf20-0690
3795 3795 wuf20-0691
4347 4347 wuf20-0692
3454 3454 wuf20-0693
3203 3203 wuf20-0694
4443 4443 wuf20-0695
2912 2912 wuf20-0696
3729 3729 wuf20-0697
3931 3931 wuf20-0698
3712 3712 wuf20-0699
3669 3669 wuf20-069
4669 4669 wuf20-06
3993 3993 wuf20-0700
3086 3086 wuf20-0701
4249 4249 wuf20-0702
3402 3402 wuf20-0703
2768 2768 wuf20-0704
4481 4481 wuf20-0705
3631 3631 wuf20-0706
3426 3426 wuf20-0707
3594 3594 wuf20-0708
4304 4304 wuf20-0709
3551 3551 wuf20-070
3018 3018 wuf20-0710
2638 2638 wuf20-0711
3063 3063 wuf20-0712
3884 3884 wuf20-0713
3529 3529 wuf20-0714
3054 3054 wuf20-0715
3530 3530 wuf20-0716
2357 2357 wuf20-0717
2923 2923 wuf20-0718
3552 3552 wuf20-0719
2947 2947 wuf20-071
3986 3986 wuf20-0720
4050 4050 wuf20-0721
3528 3528 wuf20-0722
3987 3987 wuf20-0723
4781 4781 wuf20-0724
3433 3433 wuf20-0725
3450 3450 wuf20-0726
3814 3814 wuf20-0727
2769 2769 wuf20-0728
2853 2853 wuf20-0729
3013 3013 wuf20-072
3352 3352 wuf20-0730
3602 3602 wuf20-0731
3461 3461 wuf20-0732
3662 3662 wuf20-0733
4676 4676 wuf20-0734
3045 3045 wuf20-0735
3266 3266 wuf20-0736
3035 3035 wuf20-0737
3269 3269 wuf20-0738
4265 4265 wuf20-0739
4217 4217 wuf20-073
4269 4269 wuf20-0740
2979 2979 wuf20-0741
3851 3851 wuf20-0742
3000 3000 wuf20-0743
3553 3553 wuf20-0744
3375 3375 wuf20-0745
4401 4401 wuf20-0746
3784 3784 wuf20-0747
2821 2821 wuf20-0748
5384 5384 wuf20-0749
4192 4192 wuf20-074
4951 4951 wuf20-0750
3113 3113 wuf20-0751
3272 3272 wuf20-0752
3225 3225 wuf20-0753
4279 4279 wuf20-0754
3848 3848 wuf20-0755
2953 2953 wuf20-0756
4411 4411 wuf20-0757
4369 4369 wuf20-0758
3832 3832 wuf20-0759
3137 3137 wuf20-075
3012 3012 wuf20-0760
4094 4094 wuf20-0761
3543 3543 wuf20-0762
4372 4372 wuf20-0763
4360 4360 wuf20-0764
4005 4005 wuf20-0765
3497 3497 wuf20-0766
3680 3680 wuf20-0767
3062 3062 wuf20-0768
3343 3343 wuf20-0769
3121 3121 wuf20-076
4024 4024 wuf20-0770
3538 3538 wuf20-0771
3729 3729 wuf20-0772
3396 3396 wuf20-0773
3126 3126 wuf20-0774
2458 2458 wuf20-0775
3053 3053 wuf20-0776
3594 3594 wuf20-0777
3152 3152 wuf20-0778
3581 3581 wuf20-0779
3326 3326 wuf20-0781
2986 2986 wuf20-0782
3777 3777 wuf20-0783
3103 3103 wuf20-0784
3083 3083 wuf20-0785
3685 3685 wuf20-0786
2697 2697 wuf20-0787
4172 4172 wuf20-0788
4325 4325 wuf20-0789
3139 3139 wuf20-078
3900 3900 wuf20-0790
3752 3752 wuf20-0791
2417 2417 wuf20-0792
3353 3353 wuf20-0793
4041 4041 wuf20-0794
3051 3051 wuf20-0795
2989 2989 wuf20-0796
3821 3821 wuf20-0797
4299 4299 wuf20-0798
3693 3693 wuf20-0799
2919 2919 wuf20-079
3381 3381 wuf20-07
3666 3666 wuf20-0800
4348 4348 wuf20-0801
3531 3531 wuf20-0802
3791 3791 wuf20-0803
3182 3182 wuf20-0804
4168 4168 wuf20-0805
3817 3817 wuf20-0806
3380 3380 wuf20-0807
3251 3251 wuf20-0808
3196 3196 wuf20-0809
3694 3694 wuf20-080
2785 2785 wuf20-0810
3839 3839 wuf20-0811
3608 3608 wuf20-0812
3529 3529 wuf20-0813
3857 3857 wuf20-0814
3530 3530 wuf20-0815
3258 3258 wuf20-0816
2548 2548 wuf20-0817
3979 3979 wuf20-0818
3818 3818 wuf20-0819
4032 4032 wuf20-081
3740 3740 wuf20-0820
2781 2781 wuf20-0821
2304 2304 wuf20-0822
3350 3350 wuf20-0823
2900 2900 wuf20-0824
2907 2907 wuf20-0825
4249 4249 wuf20-0826
2869 2869 wuf20-0827
3606 3606 wuf20-0828
3507 3507 wuf20-0829
3540 3540 wuf20-082
3030 3030 wuf20-0830
4086 4086 wuf20-0831
2397 2397 wuf20-0832
3032 3032 wuf20-0833
2659 2659 wuf20-0834
4007 4007 wuf20-0835
3893 3893 wuf20-0836
3205 3205 wuf20-0837
2461 2461 wuf20-0838
3050 3050 wuf20-0839
3049 3049 wuf20-083
3334 3334 wuf20-0840
2843 2843 wuf20-0841
2468 2468 wuf20-0842
2322 2322 wuf20-0843
3947 3947 wuf20-0844
2898 2898 wuf20-0845
3908 3908 wuf20-0846
2824 2824 wuf20-0847
3279 3279 wuf20-0848
3684 3684 wuf20-0849
3532 3532 wuf20-084
2092 2092 wuf20-0850
2487 2487 wuf20-0851
2431 2431 wuf20-0852
2923 2923 wuf20-0853
2460 2460 wuf20-0854
3954 3954 wuf20-0855
2148 2148 wuf20-0856
2564 2564 wuf20-0857
2955 2955 wuf20-0858
3641 3641 wuf20-0859
3484 3484 wuf20-085
2998 2998 wuf20-0860
2339 2339 wuf20-0861
2701 2701 wuf20-0862
3058 3058 wuf20-0863
3898 3898 wuf20-0864
2461 2461 wuf20-0865
2566 2566 wuf20-0866
3853 3853 wuf20-0867
2754 2754 wuf20-0868
3057 3057 wuf20-0869
2722 2722 wuf20-086
3379 3379 wuf20-0870
3042 3042 wuf20-0871
2198 2198 wuf20-0872
4269 4269 wuf20-0873
4019 4019 wuf20-0874
3480 3480 wuf20-0875
3224 3224 wuf20-0876
2287 2287 wuf20-0877
2203 2203 wuf20-0878
3250 3250 wuf20-0879
3022 3022 wuf20-087
2616 2616 wuf20-0880
2774 2774 wuf20-0881
3982 3982 wuf20-0882
2736 2736 wuf20-0883
3175 3175 wuf20-0884
3296 3296 wuf20-0885
3693 3693 wuf20-0886
2578 2578 wuf20-0887
3534 3534 wuf20-0888
3146 3146 wuf20-0889
2684 2684 wuf20-0891
2809 2809 wuf20-0892
2779 2779 wuf20-0893
3616 3616 wuf20-0894
2651 2651 wuf20-0895
2898 2898 wuf20-0896
2990 2990 wuf20-0897
2551 2551 wuf20-0898
3750 3750 wuf20-0899
2261 2261 wuf20-089
3039 3039 wuf20-08
3112 3112 wuf20-0900
3527 3527 wuf20-0901
3184 3184 wuf20-0902
3052 3052 wuf20-0903
2713 2713 wuf20-0904
2531 2531 wuf20-0905
2868 2868 wuf20-0906
2046 2046 wuf20-0907
3863 3863 wuf20-090
3016 3016 wuf20-0910
3024 3024 wuf20-0911
2608 2608 wuf20-0912
3129 3129 wuf20-0913
2949 2949 wuf20-0914
2754 2754 wuf20-0915
3657 3657 wuf20-0916
2218 2218 wuf20-0917
3297 3297 wuf20-0918
3397 3397 wuf20-0919
3367 3367 wuf20-091
3958 3958 wuf20-0920
3384 3384 wuf20-0921
3436 3436 wuf20-0922
3484 3484 wuf20-0923
3068 3068 wuf20-0924
2647 2647 wuf20-0925
3563 3563 wuf20-0926
2857 2857 wuf20-0927
3011 3011 wuf20-0928
2795 2795 wuf20-0929
4206 4206 wuf20-092
2708 2708 wuf20-0930
3130 3130 wuf20-0931
3387 3387 wuf20-0932
2637 2637 wuf20-0933
3514 3514 wuf20-0934
3618 3618 wuf20-0935
2821 2821 wuf20-0936
2470 2470 wuf20-0937
2936 2936 wuf20-0938
2467 2467 wuf20-0939
2432 2432 wuf20-093
3064 3064 wuf20-0940
2237 2237 wuf20-0941
2735 2735 wuf20-0942
3232 3232 wuf20-0943
3165 3165 wuf20-0944
2890 2890 wuf20-0945
3023 3023 wuf20-0946
2772 2772 wuf20-0947
3812 3812 wuf20-0948
2877 2877 wuf20-0949
3046 3046 wuf20-094
3002 3002 wuf20-0950
3007 3007 wuf20-0951
2971 2971 wuf20-0952
2517 2517 wuf20-0953
3664 3664 wuf20-0954
3522 3522 wuf20-0955
2465 2465 wuf20-0956
3490 3490 wuf20-0957
2597 2597 wuf20-0958
3502 3502 wuf20-0959
3391 3391 wuf20-095
3231 3231 wuf20-0960
1822 1822 wuf20-0961
2703 2703 wuf20-0962
3019 3019 wuf20-0963
3458 3458 wuf20-0964
2798 2798 wuf20-0965
3604 3604 wuf20-0966
3502 3502 wuf20-0967
2707 2707 wuf20-0968
2537 2537 wuf20-0969
3386 3386 wuf20-096
2825 2825 wuf20-0970
2440 2440 wuf20-0971
3437 3437 wuf20-0972
3335 3335 wuf20-0973
2840 2840 wuf20-0974
3667 3667 wuf20-0975
2947 2947 wuf20-0976
3335 3335 wuf20-0977
4230 4230 wuf20-0978
3189 3189 wuf20-0979
2615 2615 wuf20-097
2336 2336 wuf20-0980
2376 2376 wuf20-0981
2471 2471 wuf20-0982
2934 2934 wuf20-0983
2837 2837 wuf20-0984
3370 3370 wuf20-0985
2164 2164 wuf20-0986
3724 3724 wuf20-0987
2609 2609 wuf20-0988
2884 2884 wuf20-0989
3163 3163 wuf20-098
3078 3078 wuf20-0990
3221 3221 wuf20-0991
2196 2196 wuf20-0992
3528 3528 wuf20-0993
2741 2741 wuf20-0994
3338 3338 wuf20-0995
3213 3213 wuf20-0996
3125 3125 wuf20-0997
3468 3468 wuf20-0998
3202 3202 wuf20-0999
2270 2270 wuf20-099
3429 3429 wuf20-09
