2.301s
==========
Knight position: 1 2
Bishop position: 0 2
==========
--S---P---
--J--P-P--
----P-P--P
---P----P-
----------
----------
----------
----------
----------
----------
12
S(7,9) J(0,4) S(2,4)*  J(2,5) S(3,3)*  J(4,6) S(0,6)*  J(3,8)*  S(1,5)*  J(1,7)*  S(2,6)*  J(2,9)* 
