500: Mean diff 0.016916385589699177 Max diff 0.38316958564715936
1000: Mean diff 0.06588068265531812 Max diff 0.4319755752475985
1500: Mean diff 0.09711189720631076 Max diff 0.4560772268538833
2000: Mean diff 0.11130526112265218 Max diff 0.43584779209174174
10000: Mean diff 0.14063108412012085 Max diff 0.542846634792203
20000: Mean diff 0.1421385859854113 Max diff 0.5015218918286116
50000: Mean diff 0.14321087560673862 Max diff 0.5162725357059237
